{
  "width": 36.296,
  "questions": [
    {
      "question": "¿Cuántas veces lavás los platos día?",
      "type": "numeric",
      "answers": [
        {
         "text":  "0",
         "linkedResult": 0,
         "action": "STOP"
        },
        {
         "text":  "1",
         "linkedResult": 0,
         "action": "SKIP"
        },
        {
         "text":  "2",
         "linkedResult": 0,
         "action": "SKIP"
        },
        {
         "text":  "3",
         "linkedResult": 0,
         "action": "SKIP"
        },
        {
         "text":  "4",
         "linkedResult": 0,
         "action": "SKIP"
        }
      ],
      "results": [ "" ]
    },
    
    {
      "question": "¿Dejás la canilla abierta?",
      "type": "boolean",
      "answers": [
        {
         "text":  "No",
         "linkedResult": 1,
         "action": "SHOW_RESULT"
        },
        {
         "text":  "Sí",
         "linkedResult": 0,
         "action": "SHOW_RESULT"
        }
      ],
      "results": [
        "Cada vez que dejamos el correr el agua, desperdiciamos 12 litros por minuto",
        "¡Bien! estás cuidando un recurso valioso"
      ]
    }
  ],
  "buttonOffsets": {
    "left": {
      "x": 0,
      "y": 0
    },
    "right": {
      "x": 0,
      "y": 0
    }
  },
  "extraInfo": "Se puede ahorrar 70 litros cerrando la canilla. Ésto es casi lo que dispone un habitante en China por día",
  "animatedObjects": [
    {
      "img": "data/img/cocina/",
      "offset": {
        "x": 0, 
        "y": -9
      },
      "animations": [
        {
          "id": 1,
          "loopTimes": 3,
          "infinite": false
        },
        {
          "id": 2,
          "loopTimes": 1,
          "infinite": false 
        },
        {
          "id": 3,
          "loopTimes": 1,
          "infinite": false 
        }
      ]
    }
  ]
}
